Run Stats on Results Eickhoff
…
In [67]:

df <- df_wide %>%
  gather(key = "ROI", value = "proportion",subic_bst,subic_ant_thal,subic_ncc,subic_ext_glob_pal) %>%
  convert_as_factor(Subjects, ROI)
print(df)

# A tibble: 36 x 3
   Subjects ROI            proportion
   <fct>    <fct>               <dbl>
 1 sub-01   subic_bst         0.0784 
 2 sub-02   subic_bst         0.0985 
 3 sub-03   subic_bst         0.0634 
 4 sub-04   subic_bst         0.0354 
 5 sub-05   subic_bst         0.0236 
 6 sub-06   subic_bst         0.0190 
 7 sub-07   subic_bst         0.00709
 8 sub-08   subic_bst         0.0508 
 9 sub-09   subic_bst         0.0549 
10 sub-01   subic_ant_thal    0.161  
#  with 26 more rows
…
In [97]:

df <- df_outliers_rm %>%
  gather(key = "ROI", value = "proportion",subic_bst,subic_ant_thal,subic_ncc,subic_ext_glob_pal ) %>%
  convert_as_factor(Subjects, ROI)
print(df)

bxp <- ggboxplot(df, x = "ROI", y = "proportion", add = "point")
bxp

# A tibble: 36 x 3
   Subjects ROI            proportion
   <fct>    <fct>               <dbl>
 1 sub-01   subic_bst         0.0784 
 2 sub-02   subic_bst         0.0985 
 3 sub-03   subic_bst         0.0634 
 4 sub-04   subic_bst         0.0354 
 5 sub-05   subic_bst         0.0236 
 6 sub-06   subic_bst         0.0190 
 7 sub-07   subic_bst         0.00709
 8 sub-08   subic_bst         0.0508 
 9 sub-09   subic_bst         0.0549 
10 sub-01   subic_ant_thal    0.161  
#  with 26 more rows
…
